Metadaten – DWD Temperature Trend
…
  saveRDS(meta_geo_clean, "meta_go_clean.rds")
} else {
  meta_geo_clean <- readRDS("meta_go_clean.rds")
}

erste 100 Zeilen

Code

head(meta_geo_clean, 100)

# A tibble: 100 × 30
   Stations_id Stationshoehe Geogr.Breite Geogr.Laenge von_datum  bis_datum 
   <chr>               <dbl> <chr>        <chr>        <date>     <date>    
 1 3                    163. 50.7833      6.0833       1891-01-01 1900-06-10
 2 3                    202  50.7833      6.1000       1900-06-11 1944-08-31
 3 3                    190  50.7667      6.0833       1944-09-01 1945-03-31
 4 3                    178  50.7833      6.1000       1945-04-01 1950-03-31
 5 3                    202  50.7827      6.0941       1950-04-01 2008-10-07
 6 3                    202  50.7827      6.0941       2008-10-08 2012-04-06
 7 44                    45  52.8900      8.2300       1945-08-01 1948-12-31
 8 44                    45  52.8900      8.2300       1952-01-01 1971-02-28
 9 44                    46  52.8846      8.2308       1971-03-01 1993-06-30
10 44                    42  52.9164      8.2211       1993-07-01 2007-03-31
# ℹ 90 more rows
# ℹ 24 more variables: Stationsname <chr>, STATIONS_ID <int>,
#   source_file <chr>, Stations_ID <chr>, `Geo. Laenge [Grad]` <chr>,
#   `Geo. Breite [Grad]` <chr>, `Stationshoehe [m]` <chr>,
#   `Geberhoehe ueber Grund [m]` <chr>, Von_Datum <chr>, Bis_Datum <chr>,
#   `Geraetetyp Name` <chr>, Messverfahren <chr>, eor <chr>, ...12 <chr>,
#   Parameter <chr>, Parameterbeschreibung <chr>, Einheit <chr>, …
…
